solid OpenSCAD_Model
  facet normal 0.999507 0.0314118 0
    outer loop
      vertex 30 25 1
      vertex 29.9901 25.314 0
      vertex 29.9901 25.314 1
    endloop
  endfacet
  facet normal 0.999507 0.0314118 0
    outer loop
      vertex 29.9901 25.314 0
      vertex 30 25 1
      vertex 30 25 0
    endloop
  endfacet
  facet normal 0.707107 0.707107 0
    outer loop
      vertex 28.6448 28.4227 1
      vertex 28.4227 28.6448 0
      vertex 28.4227 28.6448 1
    endloop
  endfacet
  facet normal 0.707107 0.707107 0
    outer loop
      vertex 28.4227 28.6448 0
      vertex 28.6448 28.4227 1
      vertex 28.6448 28.4227 0
    endloop
  endfacet
  facet normal 0.917755 0.397147 0
    outer loop
      vertex 29.6489 26.8406 1
      vertex 29.5241 27.1289 0
      vertex 29.5241 27.1289 1
    endloop
  endfacet
  facet normal 0.917755 0.397147 0
    outer loop
      vertex 29.5241 27.1289 0
      vertex 29.6489 26.8406 1
      vertex 29.6489 26.8406 0
    endloop
  endfacet
  facet normal 0.338743 0.940879 -0
    outer loop
      vertex 26.8406 29.6489 0
      vertex 26.5451 29.7553 1
      vertex 26.8406 29.6489 1
    endloop
  endfacet
  facet normal 0.338743 0.940879 0
    outer loop
      vertex 26.5451 29.7553 1
      vertex 26.8406 29.6489 0
      vertex 26.5451 29.7553 0
    endloop
  endfacet
  facet normal 0.509043 0.860741 -0
    outer loop
      vertex 27.6791 29.2216 0
      vertex 27.4088 29.3815 1
      vertex 27.6791 29.2216 1
    endloop
  endfacet
  facet normal 0.509043 0.860741 0
    outer loop
      vertex 27.4088 29.3815 1
      vertex 27.6791 29.2216 0
      vertex 27.4088 29.3815 0
    endloop
  endfacet
  facet normal 0.975916 0.218145 0
    outer loop
      vertex 29.9114 25.9369 1
      vertex 29.8429 26.2435 0
      vertex 29.8429 26.2435 1
    endloop
  endfacet
  facet normal 0.975916 0.218145 0
    outer loop
      vertex 29.8429 26.2435 0
      vertex 29.9114 25.9369 1
      vertex 29.9114 25.9369 0
    endloop
  endfacet
  facet normal 0.960295 0.278985 0
    outer loop
      vertex 29.8429 26.2435 1
      vertex 29.7553 26.5451 0
      vertex 29.7553 26.5451 1
    endloop
  endfacet
  facet normal 0.960295 0.278985 0
    outer loop
      vertex 29.7553 26.5451 0
      vertex 29.8429 26.2435 1
      vertex 29.8429 26.2435 0
    endloop
  endfacet
  facet normal 0.827085 0.562077 0
    outer loop
      vertex 29.2216 27.6791 1
      vertex 29.0451 27.9389 0
      vertex 29.0451 27.9389 1
    endloop
  endfacet
  facet normal 0.827085 0.562077 0
    outer loop
      vertex 29.0451 27.9389 0
      vertex 29.2216 27.6791 1
      vertex 29.2216 27.6791 0
    endloop
  endfacet
  facet normal 0.891006 0.453992 0
    outer loop
      vertex 29.5241 27.1289 1
      vertex 29.3815 27.4088 0
      vertex 29.3815 27.4088 1
    endloop
  endfacet
  facet normal 0.891006 0.453992 0
    outer loop
      vertex 29.3815 27.4088 0
      vertex 29.5241 27.1289 1
      vertex 29.5241 27.1289 0
    endloop
  endfacet
  facet normal 0.156435 0.987688 -0
    outer loop
      vertex 25.9369 29.9114 0
      vertex 25.6267 29.9606 1
      vertex 25.9369 29.9114 1
    endloop
  endfacet
  facet normal 0.156435 0.987688 0
    outer loop
      vertex 25.6267 29.9606 1
      vertex 25.9369 29.9114 0
      vertex 25.6267 29.9606 0
    endloop
  endfacet
  facet normal 0.453992 0.891006 -0
    outer loop
      vertex 27.4088 29.3815 0
      vertex 27.1289 29.5241 1
      vertex 27.4088 29.3815 1
    endloop
  endfacet
  facet normal 0.453992 0.891006 0
    outer loop
      vertex 27.1289 29.5241 1
      vertex 27.4088 29.3815 0
      vertex 27.1289 29.5241 0
    endloop
  endfacet
  facet normal 0.612913 0.790151 -0
    outer loop
      vertex 28.1871 28.8526 0
      vertex 27.9389 29.0451 1
      vertex 28.1871 28.8526 1
    endloop
  endfacet
  facet normal 0.612913 0.790151 0
    outer loop
      vertex 27.9389 29.0451 1
      vertex 28.1871 28.8526 0
      vertex 27.9389 29.0451 0
    endloop
  endfacet
  facet normal 0 0 -1
    outer loop
      vertex 0 20 0
      vertex 22 22.5 0
      vertex 22 20 0
    endloop
  endfacet
  facet normal -0 0 -1
    outer loop
      vertex 22 22.5 0
      vertex 0 20 0
      vertex 22 27.5 0
    endloop
  endfacet
  facet normal 0 0 -1
    outer loop
      vertex 0 30 0
      vertex 22 27.5 0
      vertex 0 20 0
    endloop
  endfacet
  facet normal 0 0 -1
    outer loop
      vertex 22 27.5 0
      vertex 0 30 0
      vertex 22 30 0
    endloop
  endfacet
  facet normal 0 0 -1
    outer loop
      vertex 22 22.5 0
      vertex 25 27.5 0
      vertex 25 22.5 0
    endloop
  endfacet
  facet normal -0 0 -1
    outer loop
      vertex 25 27.5 0
      vertex 22 22.5 0
      vertex 22 27.5 0
    endloop
  endfacet
  facet normal 0 0 -1
    outer loop
      vertex 25 22.5 0
      vertex 30 25 0
      vertex 29.9901 24.686 0
    endloop
  endfacet
  facet normal 0 0 -1
    outer loop
      vertex 25 22.5 0
      vertex 29.9901 24.686 0
      vertex 29.9606 24.3733 0
    endloop
  endfacet
  facet normal 0 0 -1
    outer loop
      vertex 25 27.5 0
      vertex 30 25 0
      vertex 25 22.5 0
    endloop
  endfacet
  facet normal 0 0 -1
    outer loop
      vertex 25 22.5 0
      vertex 29.9606 24.3733 0
      vertex 29.9114 24.0631 0
    endloop
  endfacet
  facet normal 0 0 -1
    outer loop
      vertex 30 25 0
      vertex 25 27.5 0
      vertex 29.9901 25.314 0
    endloop
  endfacet
  facet normal 0 0 -1
    outer loop
      vertex 25 22.5 0
      vertex 29.9114 24.0631 0
      vertex 29.8429 23.7565 0
    endloop
  endfacet
  facet normal 0 0 -1
    outer loop
      vertex 29.9901 25.314 0
      vertex 25 27.5 0
      vertex 29.9606 25.6267 0
    endloop
  endfacet
  facet normal 0 0 -1
    outer loop
      vertex 25 22.5 0
      vertex 29.8429 23.7565 0
      vertex 29.7553 23.4549 0
    endloop
  endfacet
  facet normal 0 0 -1
    outer loop
      vertex 29.9606 25.6267 0
      vertex 25 27.5 0
      vertex 29.9114 25.9369 0
    endloop
  endfacet
  facet normal 0 0 -1
    outer loop
      vertex 25 22.5 0
      vertex 29.7553 23.4549 0
      vertex 29.6489 23.1594 0
    endloop
  endfacet
  facet normal 0 0 -1
    outer loop
      vertex 29.9114 25.9369 0
      vertex 25 27.5 0
      vertex 29.8429 26.2435 0
    endloop
  endfacet
  facet normal 0 0 -1
    outer loop
      vertex 25 22.5 0
      vertex 29.6489 23.1594 0
      vertex 29.5241 22.8711 0
    endloop
  endfacet
  facet normal 0 0 -1
    outer loop
      vertex 29.8429 26.2435 0
      vertex 25 27.5 0
      vertex 29.7553 26.5451 0
    endloop
  endfacet
  facet normal 0 0 -1
    outer loop
      vertex 25 22.5 0
      vertex 29.5241 22.8711 0
      vertex 29.3815 22.5912 0
    endloop
  endfacet
  facet normal 0 0 -1
    outer loop
      vertex 29.7553 26.5451 0
      vertex 25 27.5 0
      vertex 29.6489 26.8406 0
    endloop
  endfacet
  facet normal 0 0 -1
    outer loop
      vertex 25 22.5 0
      vertex 29.3815 22.5912 0
      vertex 29.2216 22.3209 0
    endloop
  endfacet
  facet normal 0 0 -1
    outer loop
      vertex 29.6489 26.8406 0
      vertex 25 27.5 0
      vertex 29.5241 27.1289 0
    endloop
  endfacet
  facet normal 0 0 -1
    outer loop
      vertex 25 22.5 0
      vertex 29.2216 22.3209 0
      vertex 29.0451 22.0611 0
    endloop
  endfacet
  facet normal 0 0 -1
    outer loop
      vertex 29.5241 27.1289 0
      vertex 25 27.5 0
      vertex 29.3815 27.4088 0
    endloop
  endfacet
  facet normal 0 0 -1
    outer loop
      vertex 25 22.5 0
      vertex 29.0451 22.0611 0
      vertex 28.8526 21.8129 0
    endloop
  endfacet
  facet normal 0 0 -1
    outer loop
      vertex 29.3815 27.4088 0
      vertex 25 27.5 0
      vertex 29.2216 27.6791 0
    endloop
  endfacet
  facet normal 0 0 -1
    outer loop
      vertex 25 22.5 0
      vertex 28.8526 21.8129 0
      vertex 28.6448 21.5773 0
    endloop
  endfacet
  facet normal -0 0 -1
    outer loop
      vertex 29.2216 27.6791 0
      vertex 25 27.5 0
      vertex 29.0451 27.9389 0
    endloop
  endfacet
  facet normal 0 0 -1
    outer loop
      vertex 25 22.5 0
      vertex 28.6448 21.5773 0
      vertex 28.4227 21.3552 0
    endloop
  endfacet
  facet normal -0 0 -1
    outer loop
      vertex 29.0451 27.9389 0
      vertex 25 27.5 0
      vertex 28.8526 28.1871 0
    endloop
  endfacet
  facet normal 0 0 -1
    outer loop
      vertex 25 22.5 0
      vertex 28.4227 21.3552 0
      vertex 28.1871 21.1474 0
    endloop
  endfacet
  facet normal -0 0 -1
    outer loop
      vertex 28.8526 28.1871 0
      vertex 25 27.5 0
      vertex 28.6448 28.4227 0
    endloop
  endfacet
  facet normal 0 0 -1
    outer loop
      vertex 25 22.5 0
      vertex 28.1871 21.1474 0
      vertex 27.9389 20.9549 0
    endloop
  endfacet
  facet normal -0 0 -1
    outer loop
      vertex 28.6448 28.4227 0
      vertex 25 27.5 0
      vertex 28.4227 28.6448 0
    endloop
  endfacet
  facet normal 0 0 -1
    outer loop
      vertex 25 22.5 0
      vertex 27.9389 20.9549 0
      vertex 27.6791 20.7784 0
    endloop
  endfacet
  facet normal -0 0 -1
    outer loop
      vertex 28.4227 28.6448 0
      vertex 25 27.5 0
      vertex 28.1871 28.8526 0
    endloop
  endfacet
  facet normal 0 0 -1
    outer loop
      vertex 25 22.5 0
      vertex 27.6791 20.7784 0
      vertex 27.4088 20.6185 0
    endloop
  endfacet
  facet normal -0 0 -1
    outer loop
      vertex 28.1871 28.8526 0
      vertex 25 27.5 0
      vertex 27.9389 29.0451 0
    endloop
  endfacet
  facet normal 0 0 -1
    outer loop
      vertex 25 22.5 0
      vertex 27.4088 20.6185 0
      vertex 27.1289 20.4759 0
    endloop
  endfacet
  facet normal -0 0 -1
    outer loop
      vertex 27.9389 29.0451 0
      vertex 25 27.5 0
      vertex 27.6791 29.2216 0
    endloop
  endfacet
  facet normal 0 0 -1
    outer loop
      vertex 25 22.5 0
      vertex 27.1289 20.4759 0
      vertex 26.8406 20.3511 0
    endloop
  endfacet
  facet normal -0 0 -1
    outer loop
      vertex 27.6791 29.2216 0
      vertex 25 27.5 0
      vertex 27.4088 29.3815 0
    endloop
  endfacet
  facet normal 0 0 -1
    outer loop
      vertex 25 22.5 0
      vertex 26.8406 20.3511 0
      vertex 26.5451 20.2447 0
    endloop
  endfacet
  facet normal -0 0 -1
    outer loop
      vertex 27.4088 29.3815 0
      vertex 25 27.5 0
      vertex 27.1289 29.5241 0
    endloop
  endfacet
  facet normal 0 0 -1
    outer loop
      vertex 25 22.5 0
      vertex 26.5451 20.2447 0
      vertex 26.2435 20.1571 0
    endloop
  endfacet
  facet normal -0 0 -1
    outer loop
      vertex 27.1289 29.5241 0
      vertex 25 27.5 0
      vertex 26.8406 29.6489 0
    endloop
  endfacet
  facet normal 0 0 -1
    outer loop
      vertex 25 22.5 0
      vertex 26.2435 20.1571 0
      vertex 25.9369 20.0886 0
    endloop
  endfacet
  facet normal -0 0 -1
    outer loop
      vertex 26.8406 29.6489 0
      vertex 25 27.5 0
      vertex 26.5451 29.7553 0
    endloop
  endfacet
  facet normal 0 0 -1
    outer loop
      vertex 25 22.5 0
      vertex 25.9369 20.0886 0
      vertex 25.6267 20.0394 0
    endloop
  endfacet
  facet normal -0 0 -1
    outer loop
      vertex 26.5451 29.7553 0
      vertex 25 27.5 0
      vertex 26.2435 29.8429 0
    endloop
  endfacet
  facet normal 0 0 -1
    outer loop
      vertex 25 22.5 0
      vertex 25.6267 20.0394 0
      vertex 25.314 20.0099 0
    endloop
  endfacet
  facet normal -0 0 -1
    outer loop
      vertex 26.2435 29.8429 0
      vertex 25 27.5 0
      vertex 25.9369 29.9114 0
    endloop
  endfacet
  facet normal 0 0 -1
    outer loop
      vertex 25 22.5 0
      vertex 25.314 20.0099 0
      vertex 25 20 0
    endloop
  endfacet
  facet normal -0 0 -1
    outer loop
      vertex 25.9369 29.9114 0
      vertex 25 27.5 0
      vertex 25.6267 29.9606 0
    endloop
  endfacet
  facet normal -0 0 -1
    outer loop
      vertex 25.6267 29.9606 0
      vertex 25 27.5 0
      vertex 25.314 29.9901 0
    endloop
  endfacet
  facet normal -0 0 -1
    outer loop
      vertex 25.314 29.9901 0
      vertex 25 27.5 0
      vertex 25 30 0
    endloop
  endfacet
  facet normal 0.278991 -0.960294 0
    outer loop
      vertex 26.2435 20.1571 0
      vertex 26.5451 20.2447 1
      vertex 26.2435 20.1571 1
    endloop
  endfacet
  facet normal 0.278991 -0.960294 0
    outer loop
      vertex 26.5451 20.2447 1
      vertex 26.2435 20.1571 0
      vertex 26.5451 20.2447 0
    endloop
  endfacet
  facet normal 0.453987 -0.891008 0
    outer loop
      vertex 27.1289 20.4759 0
      vertex 27.4088 20.6185 1
      vertex 27.1289 20.4759 1
    endloop
  endfacet
  facet normal 0.453987 -0.891008 0
    outer loop
      vertex 27.4088 20.6185 1
      vertex 27.1289 20.4759 0
      vertex 27.4088 20.6185 0
    endloop
  endfacet
  facet normal 0.891005 -0.453994 0
    outer loop
      vertex 29.3815 22.5912 1
      vertex 29.5241 22.8711 0
      vertex 29.5241 22.8711 1
    endloop
  endfacet
  facet normal 0.891005 -0.453994 0
    outer loop
      vertex 29.5241 22.8711 0
      vertex 29.3815 22.5912 1
      vertex 29.3815 22.5912 0
    endloop
  endfacet
  facet normal 0.987688 0.156435 0
    outer loop
      vertex 29.9606 25.6267 1
      vertex 29.9114 25.9369 0
      vertex 29.9114 25.9369 1
    endloop
  endfacet
  facet normal 0.987688 0.156435 0
    outer loop
      vertex 29.9114 25.9369 0
      vertex 29.9606 25.6267 1
      vertex 29.9606 25.6267 0
    endloop
  endfacet
  facet normal 0.995562 0.0941082 0
    outer loop
      vertex 29.9901 25.314 1
      vertex 29.9606 25.6267 0
      vertex 29.9606 25.6267 1
    endloop
  endfacet
  facet normal 0.995562 0.0941082 0
    outer loop
      vertex 29.9606 25.6267 0
      vertex 29.9901 25.314 1
      vertex 29.9901 25.314 0
    endloop
  endfacet
  facet normal 0.940879 0.338743 0
    outer loop
      vertex 29.7553 26.5451 1
      vertex 29.6489 26.8406 0
      vertex 29.6489 26.8406 1
    endloop
  endfacet
  facet normal 0.940879 0.338743 0
    outer loop
      vertex 29.6489 26.8406 0
      vertex 29.7553 26.5451 1
      vertex 29.7553 26.5451 0
    endloop
  endfacet
  facet normal 0.790151 0.612913 0
    outer loop
      vertex 29.0451 27.9389 1
      vertex 28.8526 28.1871 0
      vertex 28.8526 28.1871 1
    endloop
  endfacet
  facet normal 0.790151 0.612913 0
    outer loop
      vertex 28.8526 28.1871 0
      vertex 29.0451 27.9389 1
      vertex 29.0451 27.9389 0
    endloop
  endfacet
  facet normal 0.750115 0.661308 0
    outer loop
      vertex 28.8526 28.1871 1
      vertex 28.6448 28.4227 0
      vertex 28.6448 28.4227 1
    endloop
  endfacet
  facet normal 0.750115 0.661308 0
    outer loop
      vertex 28.6448 28.4227 0
      vertex 28.8526 28.1871 1
      vertex 28.8526 28.1871 0
    endloop
  endfacet
  facet normal 0.860741 0.509043 0
    outer loop
      vertex 29.3815 27.4088 1
      vertex 29.2216 27.6791 0
      vertex 29.2216 27.6791 1
    endloop
  endfacet
  facet normal 0.860741 0.509043 0
    outer loop
      vertex 29.2216 27.6791 0
      vertex 29.3815 27.4088 1
      vertex 29.3815 27.4088 0
    endloop
  endfacet
  facet normal 0.218145 0.975916 -0
    outer loop
      vertex 26.2435 29.8429 0
      vertex 25.9369 29.9114 1
      vertex 26.2435 29.8429 1
    endloop
  endfacet
  facet normal 0.218145 0.975916 0
    outer loop
      vertex 25.9369 29.9114 1
      vertex 26.2435 29.8429 0
      vertex 25.9369 29.9114 0
    endloop
  endfacet
  facet normal 0.278985 0.960295 -0
    outer loop
      vertex 26.5451 29.7553 0
      vertex 26.2435 29.8429 1
      vertex 26.5451 29.7553 1
    endloop
  endfacet
  facet normal 0.278985 0.960295 0
    outer loop
      vertex 26.2435 29.8429 1
      vertex 26.5451 29.7553 0
      vertex 26.2435 29.8429 0
    endloop
  endfacet
  facet normal 0.0941082 0.995562 -0
    outer loop
      vertex 25.6267 29.9606 0
      vertex 25.314 29.9901 1
      vertex 25.6267 29.9606 1
    endloop
  endfacet
  facet normal 0.0941082 0.995562 0
    outer loop
      vertex 25.314 29.9901 1
      vertex 25.6267 29.9606 0
      vertex 25.314 29.9901 0
    endloop
  endfacet
  facet normal 0.0314118 0.999507 -0
    outer loop
      vertex 25.314 29.9901 0
      vertex 25 30 1
      vertex 25.314 29.9901 1
    endloop
  endfacet
  facet normal 0.0314118 0.999507 0
    outer loop
      vertex 25 30 1
      vertex 25.314 29.9901 0
      vertex 25 30 0
    endloop
  endfacet
  facet normal 0.397147 0.917755 -0
    outer loop
      vertex 27.1289 29.5241 0
      vertex 26.8406 29.6489 1
      vertex 27.1289 29.5241 1
    endloop
  endfacet
  facet normal 0.397147 0.917755 0
    outer loop
      vertex 26.8406 29.6489 1
      vertex 27.1289 29.5241 0
      vertex 26.8406 29.6489 0
    endloop
  endfacet
  facet normal 0.562077 0.827085 -0
    outer loop
      vertex 27.9389 29.0451 0
      vertex 27.6791 29.2216 1
      vertex 27.9389 29.0451 1
    endloop
  endfacet
  facet normal 0.562077 0.827085 0
    outer loop
      vertex 27.6791 29.2216 1
      vertex 27.9389 29.0451 0
      vertex 27.6791 29.2216 0
    endloop
  endfacet
  facet normal 0.661308 0.750115 -0
    outer loop
      vertex 28.4227 28.6448 0
      vertex 28.1871 28.8526 1
      vertex 28.4227 28.6448 1
    endloop
  endfacet
  facet normal 0.661308 0.750115 0
    outer loop
      vertex 28.1871 28.8526 1
      vertex 28.4227 28.6448 0
      vertex 28.1871 28.8526 0
    endloop
  endfacet
  facet normal 0.0941082 -0.995562 0
    outer loop
      vertex 25.314 20.0099 0
      vertex 25.6267 20.0394 1
      vertex 25.314 20.0099 1
    endloop
  endfacet
  facet normal 0.0941082 -0.995562 0
    outer loop
      vertex 25.6267 20.0394 1
      vertex 25.314 20.0099 0
      vertex 25.6267 20.0394 0
    endloop
  endfacet
  facet normal 0.218145 -0.975916 0
    outer loop
      vertex 25.9369 20.0886 0
      vertex 26.2435 20.1571 1
      vertex 25.9369 20.0886 1
    endloop
  endfacet
  facet normal 0.218145 -0.975916 0
    outer loop
      vertex 26.2435 20.1571 1
      vertex 25.9369 20.0886 0
      vertex 26.2435 20.1571 0
    endloop
  endfacet
  facet normal 0.338738 -0.940881 0
    outer loop
      vertex 26.5451 20.2447 0
      vertex 26.8406 20.3511 1
      vertex 26.5451 20.2447 1
    endloop
  endfacet
  facet normal 0.338738 -0.940881 0
    outer loop
      vertex 26.8406 20.3511 1
      vertex 26.5451 20.2447 0
      vertex 26.8406 20.3511 0
    endloop
  endfacet
  facet normal 0.612913 -0.790151 0
    outer loop
      vertex 27.9389 20.9549 0
      vertex 28.1871 21.1474 1
      vertex 27.9389 20.9549 1
    endloop
  endfacet
  facet normal 0.612913 -0.790151 0
    outer loop
      vertex 28.1871 21.1474 1
      vertex 27.9389 20.9549 0
      vertex 28.1871 21.1474 0
    endloop
  endfacet
  facet normal 0.707104 -0.70711 0
    outer loop
      vertex 28.4227 21.3552 0
      vertex 28.6448 21.5773 1
      vertex 28.4227 21.3552 1
    endloop
  endfacet
  facet normal 0.707104 -0.70711 0
    outer loop
      vertex 28.6448 21.5773 1
      vertex 28.4227 21.3552 0
      vertex 28.6448 21.5773 0
    endloop
  endfacet
  facet normal 0.509043 -0.860741 0
    outer loop
      vertex 27.4088 20.6185 0
      vertex 27.6791 20.7784 1
      vertex 27.4088 20.6185 1
    endloop
  endfacet
  facet normal 0.509043 -0.860741 0
    outer loop
      vertex 27.6791 20.7784 1
      vertex 27.4088 20.6185 0
      vertex 27.6791 20.7784 0
    endloop
  endfacet
  facet normal 0.750115 -0.661308 0
    outer loop
      vertex 28.6448 21.5773 1
      vertex 28.8526 21.8129 0
      vertex 28.8526 21.8129 1
    endloop
  endfacet
  facet normal 0.750115 -0.661308 0
    outer loop
      vertex 28.8526 21.8129 0
      vertex 28.6448 21.5773 1
      vertex 28.6448 21.5773 0
    endloop
  endfacet
  facet normal 0.827085 -0.562077 0
    outer loop
      vertex 29.0451 22.0611 1
      vertex 29.2216 22.3209 0
      vertex 29.2216 22.3209 1
    endloop
  endfacet
  facet normal 0.827085 -0.562077 0
    outer loop
      vertex 29.2216 22.3209 0
      vertex 29.0451 22.0611 1
      vertex 29.0451 22.0611 0
    endloop
  endfacet
  facet normal 0.917756 -0.397144 0
    outer loop
      vertex 29.5241 22.8711 1
      vertex 29.6489 23.1594 0
      vertex 29.6489 23.1594 1
    endloop
  endfacet
  facet normal 0.917756 -0.397144 0
    outer loop
      vertex 29.6489 23.1594 0
      vertex 29.5241 22.8711 1
      vertex 29.5241 22.8711 0
    endloop
  endfacet
  facet normal 0.987688 -0.156434 0
    outer loop
      vertex 29.9114 24.0631 1
      vertex 29.9606 24.3733 0
      vertex 29.9606 24.3733 1
    endloop
  endfacet
  facet normal 0.987688 -0.156434 0
    outer loop
      vertex 29.9606 24.3733 0
      vertex 29.9114 24.0631 1
      vertex 29.9114 24.0631 0
    endloop
  endfacet
  facet normal 0.960295 -0.278985 0
    outer loop
      vertex 29.7553 23.4549 1
      vertex 29.8429 23.7565 0
      vertex 29.8429 23.7565 1
    endloop
  endfacet
  facet normal 0.960295 -0.278985 0
    outer loop
      vertex 29.8429 23.7565 0
      vertex 29.7553 23.4549 1
      vertex 29.7553 23.4549 0
    endloop
  endfacet
  facet normal -0 0 1
    outer loop
      vertex 0 30 1
      vertex 22 27.5 1
      vertex 22 30 1
    endloop
  endfacet
  facet normal 0 0 1
    outer loop
      vertex 22 27.5 1
      vertex 0 30 1
      vertex 22 22.5 1
    endloop
  endfacet
  facet normal 0 0 1
    outer loop
      vertex 0 20 1
      vertex 22 22.5 1
      vertex 0 30 1
    endloop
  endfacet
  facet normal 0 0 1
    outer loop
      vertex 22 22.5 1
      vertex 0 20 1
      vertex 22 20 1
    endloop
  endfacet
  facet normal -0 0 1
    outer loop
      vertex 22 27.5 1
      vertex 25 22.5 1
      vertex 25 27.5 1
    endloop
  endfacet
  facet normal 0 0 1
    outer loop
      vertex 25 22.5 1
      vertex 22 27.5 1
      vertex 22 22.5 1
    endloop
  endfacet
  facet normal 0 0 1
    outer loop
      vertex 25 27.5 1
      vertex 30 25 1
      vertex 29.9901 25.314 1
    endloop
  endfacet
  facet normal 0 0 1
    outer loop
      vertex 25 27.5 1
      vertex 29.9901 25.314 1
      vertex 29.9606 25.6267 1
    endloop
  endfacet
  facet normal 0 0 1
    outer loop
      vertex 25 22.5 1
      vertex 30 25 1
      vertex 25 27.5 1
    endloop
  endfacet
  facet normal 0 0 1
    outer loop
      vertex 25 27.5 1
      vertex 29.9606 25.6267 1
      vertex 29.9114 25.9369 1
    endloop
  endfacet
  facet normal 0 0 1
    outer loop
      vertex 30 25 1
      vertex 25 22.5 1
      vertex 29.9901 24.686 1
    endloop
  endfacet
  facet normal 0 0 1
    outer loop
      vertex 25 27.5 1
      vertex 29.9114 25.9369 1
      vertex 29.8429 26.2435 1
    endloop
  endfacet
  facet normal 0 0 1
    outer loop
      vertex 29.9901 24.686 1
      vertex 25 22.5 1
      vertex 29.9606 24.3733 1
    endloop
  endfacet
  facet normal 0 0 1
    outer loop
      vertex 25 27.5 1
      vertex 29.8429 26.2435 1
      vertex 29.7553 26.5451 1
    endloop
  endfacet
  facet normal 0 0 1
    outer loop
      vertex 29.9606 24.3733 1
      vertex 25 22.5 1
      vertex 29.9114 24.0631 1
    endloop
  endfacet
  facet normal 0 0 1
    outer loop
      vertex 25 27.5 1
      vertex 29.7553 26.5451 1
      vertex 29.6489 26.8406 1
    endloop
  endfacet
  facet normal 0 0 1
    outer loop
      vertex 29.9114 24.0631 1
      vertex 25 22.5 1
      vertex 29.8429 23.7565 1
    endloop
  endfacet
  facet normal 0 0 1
    outer loop
      vertex 25 27.5 1
      vertex 29.6489 26.8406 1
      vertex 29.5241 27.1289 1
    endloop
  endfacet
  facet normal 0 0 1
    outer loop
      vertex 29.8429 23.7565 1
      vertex 25 22.5 1
      vertex 29.7553 23.4549 1
    endloop
  endfacet
  facet normal 0 0 1
    outer loop
      vertex 25 27.5 1
      vertex 29.5241 27.1289 1
      vertex 29.3815 27.4088 1
    endloop
  endfacet
  facet normal 0 0 1
    outer loop
      vertex 29.7553 23.4549 1
      vertex 25 22.5 1
      vertex 29.6489 23.1594 1
    endloop
  endfacet
  facet normal -0 0 1
    outer loop
      vertex 25 27.5 1
      vertex 29.3815 27.4088 1
      vertex 29.2216 27.6791 1
    endloop
  endfacet
  facet normal 0 0 1
    outer loop
      vertex 29.6489 23.1594 1
      vertex 25 22.5 1
      vertex 29.5241 22.8711 1
    endloop
  endfacet
  facet normal 0 0 1
    outer loop
      vertex 25 27.5 1
      vertex 29.2216 27.6791 1
      vertex 29.0451 27.9389 1
    endloop
  endfacet
  facet normal 0 0 1
    outer loop
      vertex 29.5241 22.8711 1
      vertex 25 22.5 1
      vertex 29.3815 22.5912 1
    endloop
  endfacet
  facet normal 0 0 1
    outer loop
      vertex 25 27.5 1
      vertex 29.0451 27.9389 1
      vertex 28.8526 28.1871 1
    endloop
  endfacet
  facet normal 0 0 1
    outer loop
      vertex 29.3815 22.5912 1
      vertex 25 22.5 1
      vertex 29.2216 22.3209 1
    endloop
  endfacet
  facet normal 0 0 1
    outer loop
      vertex 25 27.5 1
      vertex 28.8526 28.1871 1
      vertex 28.6448 28.4227 1
    endloop
  endfacet
  facet normal 0 0 1
    outer loop
      vertex 29.2216 22.3209 1
      vertex 25 22.5 1
      vertex 29.0451 22.0611 1
    endloop
  endfacet
  facet normal 0 0 1
    outer loop
      vertex 25 27.5 1
      vertex 28.6448 28.4227 1
      vertex 28.4227 28.6448 1
    endloop
  endfacet
  facet normal 0 0 1
    outer loop
      vertex 29.0451 22.0611 1
      vertex 25 22.5 1
      vertex 28.8526 21.8129 1
    endloop
  endfacet
  facet normal 0 0 1
    outer loop
      vertex 25 27.5 1
      vertex 28.4227 28.6448 1
      vertex 28.1871 28.8526 1
    endloop
  endfacet
  facet normal 0 0 1
    outer loop
      vertex 28.8526 21.8129 1
      vertex 25 22.5 1
      vertex 28.6448 21.5773 1
    endloop
  endfacet
  facet normal 0 0 1
    outer loop
      vertex 25 27.5 1
      vertex 28.1871 28.8526 1
      vertex 27.9389 29.0451 1
    endloop
  endfacet
  facet normal 0 0 1
    outer loop
      vertex 28.6448 21.5773 1
      vertex 25 22.5 1
      vertex 28.4227 21.3552 1
    endloop
  endfacet
  facet normal 0 0 1
    outer loop
      vertex 25 27.5 1
      vertex 27.9389 29.0451 1
      vertex 27.6791 29.2216 1
    endloop
  endfacet
  facet normal 0 0 1
    outer loop
      vertex 28.4227 21.3552 1
      vertex 25 22.5 1
      vertex 28.1871 21.1474 1
    endloop
  endfacet
  facet normal 0 0 1
    outer loop
      vertex 25 27.5 1
      vertex 27.6791 29.2216 1
      vertex 27.4088 29.3815 1
    endloop
  endfacet
  facet normal 0 0 1
    outer loop
      vertex 28.1871 21.1474 1
      vertex 25 22.5 1
      vertex 27.9389 20.9549 1
    endloop
  endfacet
  facet normal 0 0 1
    outer loop
      vertex 25 27.5 1
      vertex 27.4088 29.3815 1
      vertex 27.1289 29.5241 1
    endloop
  endfacet
  facet normal 0 0 1
    outer loop
      vertex 27.9389 20.9549 1
      vertex 25 22.5 1
      vertex 27.6791 20.7784 1
    endloop
  endfacet
  facet normal 0 0 1
    outer loop
      vertex 25 27.5 1
      vertex 27.1289 29.5241 1
      vertex 26.8406 29.6489 1
    endloop
  endfacet
  facet normal 0 0 1
    outer loop
      vertex 27.6791 20.7784 1
      vertex 25 22.5 1
      vertex 27.4088 20.6185 1
    endloop
  endfacet
  facet normal 0 0 1
    outer loop
      vertex 25 27.5 1
      vertex 26.8406 29.6489 1
      vertex 26.5451 29.7553 1
    endloop
  endfacet
  facet normal 0 0 1
    outer loop
      vertex 27.4088 20.6185 1
      vertex 25 22.5 1
      vertex 27.1289 20.4759 1
    endloop
  endfacet
  facet normal 0 0 1
    outer loop
      vertex 25 27.5 1
      vertex 26.5451 29.7553 1
      vertex 26.2435 29.8429 1
    endloop
  endfacet
  facet normal 0 0 1
    outer loop
      vertex 27.1289 20.4759 1
      vertex 25 22.5 1
      vertex 26.8406 20.3511 1
    endloop
  endfacet
  facet normal 0 0 1
    outer loop
      vertex 25 27.5 1
      vertex 26.2435 29.8429 1
      vertex 25.9369 29.9114 1
    endloop
  endfacet
  facet normal 0 0 1
    outer loop
      vertex 26.8406 20.3511 1
      vertex 25 22.5 1
      vertex 26.5451 20.2447 1
    endloop
  endfacet
  facet normal 0 0 1
    outer loop
      vertex 25 27.5 1
      vertex 25.9369 29.9114 1
      vertex 25.6267 29.9606 1
    endloop
  endfacet
  facet normal 0 0 1
    outer loop
      vertex 26.5451 20.2447 1
      vertex 25 22.5 1
      vertex 26.2435 20.1571 1
    endloop
  endfacet
  facet normal 0 0 1
    outer loop
      vertex 25 27.5 1
      vertex 25.6267 29.9606 1
      vertex 25.314 29.9901 1
    endloop
  endfacet
  facet normal 0 0 1
    outer loop
      vertex 26.2435 20.1571 1
      vertex 25 22.5 1
      vertex 25.9369 20.0886 1
    endloop
  endfacet
  facet normal 0 0 1
    outer loop
      vertex 25 27.5 1
      vertex 25.314 29.9901 1
      vertex 25 30 1
    endloop
  endfacet
  facet normal 0 0 1
    outer loop
      vertex 25.9369 20.0886 1
      vertex 25 22.5 1
      vertex 25.6267 20.0394 1
    endloop
  endfacet
  facet normal 0 0 1
    outer loop
      vertex 25.6267 20.0394 1
      vertex 25 22.5 1
      vertex 25.314 20.0099 1
    endloop
  endfacet
  facet normal 0 0 1
    outer loop
      vertex 25.314 20.0099 1
      vertex 25 22.5 1
      vertex 25 20 1
    endloop
  endfacet
  facet normal 0.156435 -0.987688 0
    outer loop
      vertex 25.6267 20.0394 0
      vertex 25.9369 20.0886 1
      vertex 25.6267 20.0394 1
    endloop
  endfacet
  facet normal 0.156435 -0.987688 0
    outer loop
      vertex 25.9369 20.0886 1
      vertex 25.6267 20.0394 0
      vertex 25.9369 20.0886 0
    endloop
  endfacet
  facet normal 0.397152 -0.917753 0
    outer loop
      vertex 26.8406 20.3511 0
      vertex 27.1289 20.4759 1
      vertex 26.8406 20.3511 1
    endloop
  endfacet
  facet normal 0.397152 -0.917753 0
    outer loop
      vertex 27.1289 20.4759 1
      vertex 26.8406 20.3511 0
      vertex 27.1289 20.4759 0
    endloop
  endfacet
  facet normal 0.661308 -0.750115 0
    outer loop
      vertex 28.1871 21.1474 0
      vertex 28.4227 21.3552 1
      vertex 28.1871 21.1474 1
    endloop
  endfacet
  facet normal 0.661308 -0.750115 0
    outer loop
      vertex 28.4227 21.3552 1
      vertex 28.1871 21.1474 0
      vertex 28.4227 21.3552 0
    endloop
  endfacet
  facet normal 0.562081 -0.827082 0
    outer loop
      vertex 27.6791 20.7784 0
      vertex 27.9389 20.9549 1
      vertex 27.6791 20.7784 1
    endloop
  endfacet
  facet normal 0.562081 -0.827082 0
    outer loop
      vertex 27.9389 20.9549 1
      vertex 27.6791 20.7784 0
      vertex 27.9389 20.9549 0
    endloop
  endfacet
  facet normal 0.790153 -0.61291 0
    outer loop
      vertex 28.8526 21.8129 1
      vertex 29.0451 22.0611 0
      vertex 29.0451 22.0611 1
    endloop
  endfacet
  facet normal 0.790153 -0.61291 0
    outer loop
      vertex 29.0451 22.0611 0
      vertex 28.8526 21.8129 1
      vertex 28.8526 21.8129 0
    endloop
  endfacet
  facet normal 0.860741 -0.509043 0
    outer loop
      vertex 29.2216 22.3209 1
      vertex 29.3815 22.5912 0
      vertex 29.3815 22.5912 1
    endloop
  endfacet
  facet normal 0.860741 -0.509043 0
    outer loop
      vertex 29.3815 22.5912 0
      vertex 29.2216 22.3209 1
      vertex 29.2216 22.3209 0
    endloop
  endfacet
  facet normal 0.940879 -0.338743 0
    outer loop
      vertex 29.6489 23.1594 1
      vertex 29.7553 23.4549 0
      vertex 29.7553 23.4549 1
    endloop
  endfacet
  facet normal 0.940879 -0.338743 0
    outer loop
      vertex 29.7553 23.4549 0
      vertex 29.6489 23.1594 1
      vertex 29.6489 23.1594 0
    endloop
  endfacet
  facet normal 0.995562 -0.0941082 0
    outer loop
      vertex 29.9606 24.3733 1
      vertex 29.9901 24.686 0
      vertex 29.9901 24.686 1
    endloop
  endfacet
  facet normal 0.995562 -0.0941082 0
    outer loop
      vertex 29.9901 24.686 0
      vertex 29.9606 24.3733 1
      vertex 29.9606 24.3733 0
    endloop
  endfacet
  facet normal 0.975916 -0.218146 0
    outer loop
      vertex 29.8429 23.7565 1
      vertex 29.9114 24.0631 0
      vertex 29.9114 24.0631 1
    endloop
  endfacet
  facet normal 0.975916 -0.218146 0
    outer loop
      vertex 29.9114 24.0631 0
      vertex 29.8429 23.7565 1
      vertex 29.8429 23.7565 0
    endloop
  endfacet
  facet normal 0.0314057 -0.999507 0
    outer loop
      vertex 25 20 0
      vertex 25.314 20.0099 1
      vertex 25 20 1
    endloop
  endfacet
  facet normal 0.0314057 -0.999507 0
    outer loop
      vertex 25.314 20.0099 1
      vertex 25 20 0
      vertex 25.314 20.0099 0
    endloop
  endfacet
  facet normal 0.999507 -0.0314118 0
    outer loop
      vertex 29.9901 24.686 1
      vertex 30 25 0
      vertex 30 25 1
    endloop
  endfacet
  facet normal 0.999507 -0.0314118 0
    outer loop
      vertex 30 25 0
      vertex 29.9901 24.686 1
      vertex 29.9901 24.686 0
    endloop
  endfacet
  facet normal -1 0 0
    outer loop
      vertex 25 27.5 0
      vertex 25 30 1
      vertex 25 30 0
    endloop
  endfacet
  facet normal -1 -0 0
    outer loop
      vertex 25 30 1
      vertex 25 27.5 0
      vertex 25 27.5 1
    endloop
  endfacet
  facet normal -1 0 0
    outer loop
      vertex 25 20 0
      vertex 25 22.5 1
      vertex 25 22.5 0
    endloop
  endfacet
  facet normal -1 -0 0
    outer loop
      vertex 25 22.5 1
      vertex 25 20 0
      vertex 25 20 1
    endloop
  endfacet
  facet normal -1 0 0
    outer loop
      vertex 0 20 0
      vertex 0 30 1
      vertex 0 30 0
    endloop
  endfacet
  facet normal -1 -0 0
    outer loop
      vertex 0 30 1
      vertex 0 20 0
      vertex 0 20 1
    endloop
  endfacet
  facet normal 1 -0 0
    outer loop
      vertex 22 20 1
      vertex 22 22.5 0
      vertex 22 22.5 1
    endloop
  endfacet
  facet normal 1 0 0
    outer loop
      vertex 22 22.5 0
      vertex 22 20 1
      vertex 22 20 0
    endloop
  endfacet
  facet normal 1 -0 0
    outer loop
      vertex 22 27.5 1
      vertex 22 30 0
      vertex 22 30 1
    endloop
  endfacet
  facet normal 1 0 0
    outer loop
      vertex 22 30 0
      vertex 22 27.5 1
      vertex 22 27.5 0
    endloop
  endfacet
  facet normal 0 1 -0
    outer loop
      vertex 22 30 0
      vertex 0 30 1
      vertex 22 30 1
    endloop
  endfacet
  facet normal 0 1 0
    outer loop
      vertex 0 30 1
      vertex 22 30 0
      vertex 0 30 0
    endloop
  endfacet
  facet normal 0 -1 0
    outer loop
      vertex 0 20 0
      vertex 22 20 1
      vertex 0 20 1
    endloop
  endfacet
  facet normal 0 -1 -0
    outer loop
      vertex 22 20 1
      vertex 0 20 0
      vertex 22 20 0
    endloop
  endfacet
  facet normal 0 1 -0
    outer loop
      vertex 25 27.5 0
      vertex 22 27.5 1
      vertex 25 27.5 1
    endloop
  endfacet
  facet normal 0 1 0
    outer loop
      vertex 22 27.5 1
      vertex 25 27.5 0
      vertex 22 27.5 0
    endloop
  endfacet
  facet normal 0 -1 0
    outer loop
      vertex 22 22.5 0
      vertex 25 22.5 1
      vertex 22 22.5 1
    endloop
  endfacet
  facet normal 0 -1 -0
    outer loop
      vertex 25 22.5 1
      vertex 22 22.5 0
      vertex 25 22.5 0
    endloop
  endfacet
  facet normal -1 0 0
    outer loop
      vertex 0 0 0
      vertex 0 10 1
      vertex 0 10 0
    endloop
  endfacet
  facet normal -1 -0 0
    outer loop
      vertex 0 10 1
      vertex 0 0 0
      vertex 0 0 1
    endloop
  endfacet
  facet normal 0 0 1
    outer loop
      vertex 20 4 1
      vertex 12 4 1
      vertex 20 2.5 1
    endloop
  endfacet
  facet normal 0 0 1
    outer loop
      vertex 30 10 1
      vertex 22 7.5 1
      vertex 30 0 1
    endloop
  endfacet
  facet normal 0 0 1
    outer loop
      vertex 30 10 1
      vertex 20 7.5 1
      vertex 22 7.5 1
    endloop
  endfacet
  facet normal 0 0 1
    outer loop
      vertex 20 7.5 1
      vertex 12 6 1
      vertex 20 6 1
    endloop
  endfacet
  facet normal -0 0 1
    outer loop
      vertex 0 10 1
      vertex 20 7.5 1
      vertex 30 10 1
    endloop
  endfacet
  facet normal 0 0 1
    outer loop
      vertex 12 6 1
      vertex 0 10 1
      vertex 12 4 1
    endloop
  endfacet
  facet normal 0 0 1
    outer loop
      vertex 20 7.5 1
      vertex 0 10 1
      vertex 12 6 1
    endloop
  endfacet
  facet normal -0 0 1
    outer loop
      vertex 22 2.5 1
      vertex 30 0 1
      vertex 22 7.5 1
    endloop
  endfacet
  facet normal -0 0 1
    outer loop
      vertex 20 2.5 1
      vertex 30 0 1
      vertex 22 2.5 1
    endloop
  endfacet
  facet normal 0 0 1
    outer loop
      vertex 0 0 1
      vertex 20 2.5 1
      vertex 12 4 1
    endloop
  endfacet
  facet normal 0 0 1
    outer loop
      vertex 20 2.5 1
      vertex 0 0 1
      vertex 30 0 1
    endloop
  endfacet
  facet normal 0 0 1
    outer loop
      vertex 0 0 1
      vertex 12 4 1
      vertex 0 10 1
    endloop
  endfacet
  facet normal 1 -0 0
    outer loop
      vertex 30 0 1
      vertex 30 10 0
      vertex 30 10 1
    endloop
  endfacet
  facet normal 1 0 0
    outer loop
      vertex 30 10 0
      vertex 30 0 1
      vertex 30 0 0
    endloop
  endfacet
  facet normal 0 1 -0
    outer loop
      vertex 30 10 0
      vertex 0 10 1
      vertex 30 10 1
    endloop
  endfacet
  facet normal 0 1 0
    outer loop
      vertex 0 10 1
      vertex 30 10 0
      vertex 0 10 0
    endloop
  endfacet
  facet normal 0 0 -1
    outer loop
      vertex 20 6 0
      vertex 12 6 0
      vertex 20 7.5 0
    endloop
  endfacet
  facet normal 0 0 -1
    outer loop
      vertex 30 0 0
      vertex 22 2.5 0
      vertex 30 10 0
    endloop
  endfacet
  facet normal 0 0 -1
    outer loop
      vertex 30 0 0
      vertex 20 2.5 0
      vertex 22 2.5 0
    endloop
  endfacet
  facet normal 0 0 -1
    outer loop
      vertex 20 2.5 0
      vertex 12 4 0
      vertex 20 4 0
    endloop
  endfacet
  facet normal 0 0 -1
    outer loop
      vertex 0 0 0
      vertex 20 2.5 0
      vertex 30 0 0
    endloop
  endfacet
  facet normal -0 0 -1
    outer loop
      vertex 12 4 0
      vertex 0 0 0
      vertex 12 6 0
    endloop
  endfacet
  facet normal -0 0 -1
    outer loop
      vertex 20 2.5 0
      vertex 0 0 0
      vertex 12 4 0
    endloop
  endfacet
  facet normal 0 0 -1
    outer loop
      vertex 22 7.5 0
      vertex 30 10 0
      vertex 22 2.5 0
    endloop
  endfacet
  facet normal 0 0 -1
    outer loop
      vertex 20 7.5 0
      vertex 30 10 0
      vertex 22 7.5 0
    endloop
  endfacet
  facet normal 0 0 -1
    outer loop
      vertex 0 10 0
      vertex 20 7.5 0
      vertex 12 6 0
    endloop
  endfacet
  facet normal 0 0 -1
    outer loop
      vertex 20 7.5 0
      vertex 0 10 0
      vertex 30 10 0
    endloop
  endfacet
  facet normal 0 0 -1
    outer loop
      vertex 0 10 0
      vertex 12 6 0
      vertex 0 0 0
    endloop
  endfacet
  facet normal 0 -1 0
    outer loop
      vertex 0 0 0
      vertex 30 0 1
      vertex 0 0 1
    endloop
  endfacet
  facet normal 0 -1 -0
    outer loop
      vertex 30 0 1
      vertex 0 0 0
      vertex 30 0 0
    endloop
  endfacet
  facet normal 1 -0 0
    outer loop
      vertex 12 4 1
      vertex 12 6 0
      vertex 12 6 1
    endloop
  endfacet
  facet normal 1 0 0
    outer loop
      vertex 12 6 0
      vertex 12 4 1
      vertex 12 4 0
    endloop
  endfacet
  facet normal -1 0 0
    outer loop
      vertex 22 2.5 0
      vertex 22 7.5 1
      vertex 22 7.5 0
    endloop
  endfacet
  facet normal -1 -0 0
    outer loop
      vertex 22 7.5 1
      vertex 22 2.5 0
      vertex 22 2.5 1
    endloop
  endfacet
  facet normal 0 1 -0
    outer loop
      vertex 20 4 0
      vertex 12 4 1
      vertex 20 4 1
    endloop
  endfacet
  facet normal 0 1 0
    outer loop
      vertex 12 4 1
      vertex 20 4 0
      vertex 12 4 0
    endloop
  endfacet
  facet normal 0 -1 0
    outer loop
      vertex 12 6 0
      vertex 20 6 1
      vertex 12 6 1
    endloop
  endfacet
  facet normal 0 -1 -0
    outer loop
      vertex 20 6 1
      vertex 12 6 0
      vertex 20 6 0
    endloop
  endfacet
  facet normal 1 -0 0
    outer loop
      vertex 20 2.5 1
      vertex 20 4 0
      vertex 20 4 1
    endloop
  endfacet
  facet normal 1 0 0
    outer loop
      vertex 20 4 0
      vertex 20 2.5 1
      vertex 20 2.5 0
    endloop
  endfacet
  facet normal 1 -0 0
    outer loop
      vertex 20 6 1
      vertex 20 7.5 0
      vertex 20 7.5 1
    endloop
  endfacet
  facet normal 1 0 0
    outer loop
      vertex 20 7.5 0
      vertex 20 6 1
      vertex 20 6 0
    endloop
  endfacet
  facet normal 0 -1 0
    outer loop
      vertex 20 7.5 0
      vertex 22 7.5 1
      vertex 20 7.5 1
    endloop
  endfacet
  facet normal 0 -1 -0
    outer loop
      vertex 22 7.5 1
      vertex 20 7.5 0
      vertex 22 7.5 0
    endloop
  endfacet
  facet normal 0 1 -0
    outer loop
      vertex 22 2.5 0
      vertex 20 2.5 1
      vertex 22 2.5 1
    endloop
  endfacet
  facet normal 0 1 0
    outer loop
      vertex 20 2.5 1
      vertex 22 2.5 0
      vertex 20 2.5 0
    endloop
  endfacet
  facet normal -1 0 0
    outer loop
      vertex 0 -20 0
      vertex 0 -10 1
      vertex 0 -10 0
    endloop
  endfacet
  facet normal -1 -0 0
    outer loop
      vertex 0 -10 1
      vertex 0 -20 0
      vertex 0 -20 1
    endloop
  endfacet
  facet normal 0 0 1
    outer loop
      vertex 20 -16 1
      vertex 12 -16 1
      vertex 20 -17.5 1
    endloop
  endfacet
  facet normal 0 0 1
    outer loop
      vertex 30 -10 1
      vertex 22 -12.5 1
      vertex 30 -20 1
    endloop
  endfacet
  facet normal 0 0 1
    outer loop
      vertex 30 -10 1
      vertex 20 -12.5 1
      vertex 22 -12.5 1
    endloop
  endfacet
  facet normal 0 0 1
    outer loop
      vertex 20 -12.5 1
      vertex 12 -14 1
      vertex 20 -14 1
    endloop
  endfacet
  facet normal -0 0 1
    outer loop
      vertex 0 -10 1
      vertex 20 -12.5 1
      vertex 30 -10 1
    endloop
  endfacet
  facet normal 0 0 1
    outer loop
      vertex 12 -14 1
      vertex 0 -10 1
      vertex 12 -16 1
    endloop
  endfacet
  facet normal 0 0 1
    outer loop
      vertex 20 -12.5 1
      vertex 0 -10 1
      vertex 12 -14 1
    endloop
  endfacet
  facet normal -0 0 1
    outer loop
      vertex 22 -17.5 1
      vertex 30 -20 1
      vertex 22 -12.5 1
    endloop
  endfacet
  facet normal -0 0 1
    outer loop
      vertex 20 -17.5 1
      vertex 30 -20 1
      vertex 22 -17.5 1
    endloop
  endfacet
  facet normal 0 0 1
    outer loop
      vertex 0 -20 1
      vertex 20 -17.5 1
      vertex 12 -16 1
    endloop
  endfacet
  facet normal 0 0 1
    outer loop
      vertex 20 -17.5 1
      vertex 0 -20 1
      vertex 30 -20 1
    endloop
  endfacet
  facet normal 0 0 1
    outer loop
      vertex 0 -20 1
      vertex 12 -16 1
      vertex 0 -10 1
    endloop
  endfacet
  facet normal 1 -0 0
    outer loop
      vertex 30 -20 1
      vertex 30 -10 0
      vertex 30 -10 1
    endloop
  endfacet
  facet normal 1 0 0
    outer loop
      vertex 30 -10 0
      vertex 30 -20 1
      vertex 30 -20 0
    endloop
  endfacet
  facet normal 0 0 -1
    outer loop
      vertex 20 -14 0
      vertex 12 -14 0
      vertex 20 -12.5 0
    endloop
  endfacet
  facet normal 0 0 -1
    outer loop
      vertex 30 -20 0
      vertex 22 -17.5 0
      vertex 30 -10 0
    endloop
  endfacet
  facet normal 0 0 -1
    outer loop
      vertex 30 -20 0
      vertex 20 -17.5 0
      vertex 22 -17.5 0
    endloop
  endfacet
  facet normal 0 0 -1
    outer loop
      vertex 20 -17.5 0
      vertex 12 -16 0
      vertex 20 -16 0
    endloop
  endfacet
  facet normal 0 0 -1
    outer loop
      vertex 0 -20 0
      vertex 20 -17.5 0
      vertex 30 -20 0
    endloop
  endfacet
  facet normal -0 0 -1
    outer loop
      vertex 12 -16 0
      vertex 0 -20 0
      vertex 12 -14 0
    endloop
  endfacet
  facet normal -0 0 -1
    outer loop
      vertex 20 -17.5 0
      vertex 0 -20 0
      vertex 12 -16 0
    endloop
  endfacet
  facet normal 0 0 -1
    outer loop
      vertex 22 -12.5 0
      vertex 30 -10 0
      vertex 22 -17.5 0
    endloop
  endfacet
  facet normal 0 0 -1
    outer loop
      vertex 20 -12.5 0
      vertex 30 -10 0
      vertex 22 -12.5 0
    endloop
  endfacet
  facet normal 0 0 -1
    outer loop
      vertex 0 -10 0
      vertex 20 -12.5 0
      vertex 12 -14 0
    endloop
  endfacet
  facet normal 0 0 -1
    outer loop
      vertex 20 -12.5 0
      vertex 0 -10 0
      vertex 30 -10 0
    endloop
  endfacet
  facet normal 0 0 -1
    outer loop
      vertex 0 -10 0
      vertex 12 -14 0
      vertex 0 -20 0
    endloop
  endfacet
  facet normal 0 -1 0
    outer loop
      vertex 0 -20 0
      vertex 30 -20 1
      vertex 0 -20 1
    endloop
  endfacet
  facet normal 0 -1 -0
    outer loop
      vertex 30 -20 1
      vertex 0 -20 0
      vertex 30 -20 0
    endloop
  endfacet
  facet normal 0 1 -0
    outer loop
      vertex 30 -10 0
      vertex 0 -10 1
      vertex 30 -10 1
    endloop
  endfacet
  facet normal 0 1 0
    outer loop
      vertex 0 -10 1
      vertex 30 -10 0
      vertex 0 -10 0
    endloop
  endfacet
  facet normal 1 -0 0
    outer loop
      vertex 12 -16 1
      vertex 12 -14 0
      vertex 12 -14 1
    endloop
  endfacet
  facet normal 1 0 0
    outer loop
      vertex 12 -14 0
      vertex 12 -16 1
      vertex 12 -16 0
    endloop
  endfacet
  facet normal -1 0 0
    outer loop
      vertex 22 -17.5 0
      vertex 22 -12.5 1
      vertex 22 -12.5 0
    endloop
  endfacet
  facet normal -1 -0 0
    outer loop
      vertex 22 -12.5 1
      vertex 22 -17.5 0
      vertex 22 -17.5 1
    endloop
  endfacet
  facet normal 0 -1 0
    outer loop
      vertex 12 -14 0
      vertex 20 -14 1
      vertex 12 -14 1
    endloop
  endfacet
  facet normal 0 -1 -0
    outer loop
      vertex 20 -14 1
      vertex 12 -14 0
      vertex 20 -14 0
    endloop
  endfacet
  facet normal 0 1 -0
    outer loop
      vertex 20 -16 0
      vertex 12 -16 1
      vertex 20 -16 1
    endloop
  endfacet
  facet normal 0 1 0
    outer loop
      vertex 12 -16 1
      vertex 20 -16 0
      vertex 12 -16 0
    endloop
  endfacet
  facet normal 1 -0 0
    outer loop
      vertex 20 -17.5 1
      vertex 20 -16 0
      vertex 20 -16 1
    endloop
  endfacet
  facet normal 1 0 0
    outer loop
      vertex 20 -16 0
      vertex 20 -17.5 1
      vertex 20 -17.5 0
    endloop
  endfacet
  facet normal 1 -0 0
    outer loop
      vertex 20 -14 1
      vertex 20 -12.5 0
      vertex 20 -12.5 1
    endloop
  endfacet
  facet normal 1 0 0
    outer loop
      vertex 20 -12.5 0
      vertex 20 -14 1
      vertex 20 -14 0
    endloop
  endfacet
  facet normal 0 -1 0
    outer loop
      vertex 20 -12.5 0
      vertex 22 -12.5 1
      vertex 20 -12.5 1
    endloop
  endfacet
  facet normal 0 -1 -0
    outer loop
      vertex 22 -12.5 1
      vertex 20 -12.5 0
      vertex 22 -12.5 0
    endloop
  endfacet
  facet normal 0 1 -0
    outer loop
      vertex 22 -17.5 0
      vertex 20 -17.5 1
      vertex 22 -17.5 1
    endloop
  endfacet
  facet normal 0 1 0
    outer loop
      vertex 20 -17.5 1
      vertex 22 -17.5 0
      vertex 20 -17.5 0
    endloop
  endfacet
endsolid OpenSCAD_Model
